{
    "strict": true,
    "debug": true,
    "sp": {
        "entityId": "learndi",
        "assertionConsumerService": {
            "url": "http://10.104.249.69/saml2/acs/",
            "binding": "urn:oasis:names:tc:SAML:2.0:bindings:HTTP-POST"
        },
        "singleLogoutService": {
            "url": "https://10.104.249.82/samlslo",
            "binding": "urn:oasis:names:tc:SAML:2.0:bindings:HTTP-Redirect"
        },
        "NameIDFormat": "urn:oasis:names:tc:SAML:2.0:protocol",
        "x509cert": "",
        "privateKey": ""
    },
    "idp": {
        "entityId": "learndi",
        "singleSignOnService": {
            "url": "https://10.104.249.82/samlsso",
            "binding": "urn:oasis:names:tc:SAML:2.0:bindings:HTTP-Redirect"
        },
        "singleLogoutService": {
            "url": "https://10.104.249.82/samlslo",
            "binding": "urn:oasis:names:tc:SAML:2.0:bindings:HTTP-Redirect"
        },
        "x509cert": ""
    }
}
