[
{
  "model": "aismpay.level",
  "pk": 1437114812002088,
  "fields": {
    "service": "454400030006021",
    "volume": 9000
  }
},
{
  "model": "aismpay.level",
  "pk": 1437114820002089,
  "fields": {
    "service": "454400030006022",
    "volume": 19000
  }
},
{
  "model": "aismpay.level",
  "pk": 1437114830002090,
  "fields": {
    "service": "454400030006023",
    "volume": 29000
  }
},
{
  "model": "aismpay.level",
  "pk": 1437114838002091,
  "fields": {
    "service": "454400030006024",
    "volume": 39000
  }
},
{
  "model": "aismpay.level",
  "pk": 1437114847002092,
  "fields": {
    "service": "454400030006025",
    "volume": 49000
  }
},
{
  "model": "aismpay.level",
  "pk": 1437114858002093,
  "fields": {
    "service": "454400030006026",
    "volume": 59000
  }
},
{
  "model": "aismpay.level",
  "pk": 1437114868002094,
  "fields": {
    "service": "454400030006027",
    "volume": 69000
  }
},
{
  "model": "aismpay.level",
  "pk": 1437114879002095,
  "fields": {
    "service": "454400030006028",
    "volume": 79000
  }
},
{
  "model": "aismpay.level",
  "pk": 1437114888002096,
  "fields": {
    "service": "454400030006029",
    "volume": 89000
  }
},
{
  "model": "aismpay.level",
  "pk": 1437114899002097,
  "fields": {
    "service": "454400030006030",
    "volume": 99000
  }
},
{
  "model": "aismpay.level",
  "pk": 1437114911002098,
  "fields": {
    "service": "454400030006031",
    "volume": 109000
  }
},
{
  "model": "aismpay.level",
  "pk": 1437114928002099,
  "fields": {
    "service": "454400030006032",
    "volume": 129000
  }
},
{
  "model": "aismpay.level",
  "pk": 1437114939002100,
  "fields": {
    "service": "454400030006033",
    "volume": 149000
  }
},
{
  "model": "aismpay.level",
  "pk": 1437114953002102,
  "fields": {
    "service": "454400030006034",
    "volume": 169000
  }
},
{
  "model": "aismpay.level",
  "pk": 1437114967002103,
  "fields": {
    "service": "454400030006035",
    "volume": 199000
  }
},
{
  "model": "aismpay.level",
  "pk": 1437114984002104,
  "fields": {
    "service": "454400030006036",
    "volume": 249000
  }
},
{
  "model": "aismpay.level",
  "pk": 1437114996002105,
  "fields": {
    "service": "454400030006037",
    "volume": 299000
  }
},
{
  "model": "aismpay.level",
  "pk": 1450857264294956,
  "fields": {
    "service": "454400030006059",
    "volume": 4000
  }
},
{
  "model": "aismpay.level",
  "pk": 1450857264294957,
  "fields": {
    "service": "454400030006060",
    "volume": 5000
  }
},
{
  "model": "aismpay.level",
  "pk": 1450857264294958,
  "fields": {
    "service": "454400030006061",
    "volume": 6000
  }
},
{
  "model": "aismpay.level",
  "pk": 1450857264294959,
  "fields": {
    "service": "454400030006062",
    "volume": 7000
  }
},
{
  "model": "aismpay.level",
  "pk": 1450857264294960,
  "fields": {
    "service": "454400030006063",
    "volume": 8000
  }
},
{
  "model": "aismpay.level",
  "pk": 1450857264294961,
  "fields": {
    "service": "454400030006064",
    "volume": 10000
  }
},
{
  "model": "aismpay.level",
  "pk": 1450857264294962,
  "fields": {
    "service": "454400030006065",
    "volume": 11000
  }
},
{
  "model": "aismpay.level",
  "pk": 1450857264294963,
  "fields": {
    "service": "454400030006066",
    "volume": 12000
  }
},
{
  "model": "aismpay.level",
  "pk": 1450857264294964,
  "fields": {
    "service": "454400030006067",
    "volume": 13000
  }
},
{
  "model": "aismpay.level",
  "pk": 1450857264294965,
  "fields": {
    "service": "454400030006068",
    "volume": 14000
  }
},
{
  "model": "aismpay.level",
  "pk": 1450857264294966,
  "fields": {
    "service": "454400030006069",
    "volume": 15000
  }
},
{
  "model": "aismpay.level",
  "pk": 1450857264294967,
  "fields": {
    "service": "454400030006070",
    "volume": 17000
  }
},
{
  "model": "aismpay.level",
  "pk": 1450857264294968,
  "fields": {
    "service": "454400030006071",
    "volume": 240000
  }
},
{
  "model": "aismpay.level",
  "pk": 1450857264294969,
  "fields": {
    "service": "454400030006072",
    "volume": 330000
  }
},
{
  "model": "aismpay.level",
  "pk": 1450857264294970,
  "fields": {
    "service": "454400030006073",
    "volume": 399000
  }
}
]
