[
{
  "fields": {
    "sort": 1,
    "text": "\u0e40\u0e21\u0e37\u0e48\u0e2d\u0e04\u0e38\u0e13\u0e01\u0e34\u0e19\u0e02\u0e49\u0e32\u0e27\u0e01\u0e31\u0e1a\u0e40\u0e1e\u0e37\u0e48\u0e2d\u0e19\u0e46 \u0e04\u0e38\u0e13\u0e08\u0e30 ??!!",
    "session": 1
  },
  "model": "quiz.question",
  "pk": 1
},
{
  "fields": {
    "sort": 2,
    "text": "\u0e40\u0e21\u0e37\u0e48\u0e2d\u0e04\u0e38\u0e13\u0e15\u0e49\u0e2d\u0e07\u0e17\u0e33\u0e07\u0e32\u0e19\u0e01\u0e25\u0e38\u0e48\u0e21 \u0e04\u0e38\u0e13\u0e08\u0e30 ??",
    "session": 1
  },
  "model": "quiz.question",
  "pk": 2
},
{
  "fields": {
    "sort": 3,
    "text": "\u0e40\u0e21\u0e37\u0e48\u0e2d\u0e27\u0e31\u0e19\u0e41\u0e02\u0e48\u0e07\u0e01\u0e35\u0e2c\u0e32\u0e2a\u0e35\u0e21\u0e32\u0e16\u0e36\u0e07 \u0e2b\u0e19\u0e49\u0e32\u0e17\u0e35\u0e48\u0e09\u0e31\u0e19\u0e04\u0e37\u0e2d",
    "session": 1
  },
  "model": "quiz.question",
  "pk": 3
},
{
  "fields": {
    "sort": 5,
    "text": "\u0e40\u0e21\u0e37\u0e48\u0e2d\u0e15\u0e49\u0e2d\u0e07\u0e19\u0e31\u0e48\u0e07\u0e2a\u0e2d\u0e07\u0e41\u0e16\u0e27 !!",
    "session": 1
  },
  "model": "quiz.question",
  "pk": 4
},
{
  "fields": {
    "sort": 6,
    "text": "\u0e40\u0e21\u0e37\u0e48\u0e2d\u0e09\u0e31\u0e19\u0e1b\u0e48\u0e27\u0e22",
    "session": 1
  },
  "model": "quiz.question",
  "pk": 5
},
{
  "fields": {
    "sort": 7,
    "text": "\u0e08\u0e30\u0e40\u0e02\u0e49\u0e32\u0e0a\u0e21\u0e23\u0e21\u0e2d\u0e30\u0e44\u0e23\u0e14\u0e35\u0e19\u0e30",
    "session": 1
  },
  "model": "quiz.question",
  "pk": 6
},
{
  "fields": {
    "sort": 8,
    "text": "\u0e40\u0e21\u0e37\u0e48\u0e2d\u0e40\u0e25\u0e37\u0e2d\u0e01\u0e14\u0e39\u0e23\u0e32\u0e22\u0e01\u0e32\u0e23\u0e17\u0e35\u0e27\u0e35",
    "session": 1
  },
  "model": "quiz.question",
  "pk": 7
},
{
  "fields": {
    "sort": 9,
    "text": "\u0e44\u0e1b\u0e0a\u0e49\u0e2d\u0e1b\u0e1b\u0e34\u0e49\u0e07",
    "session": 1
  },
  "model": "quiz.question",
  "pk": 8
},
{
  "fields": {
    "sort": 4,
    "text": "\u0e40\u0e21\u0e37\u0e48\u0e2d\u0e40\u0e1e\u0e37\u0e48\u0e2d\u0e19\u0e17\u0e30\u0e40\u0e25\u0e32\u0e30\u0e01\u0e31\u0e19",
    "session": 1
  },
  "model": "quiz.question",
  "pk": 9
},
{
  "fields": {
    "sort": 10,
    "text": "\u0e40\u0e25\u0e37\u0e2d\u0e01\u0e2a\u0e32\u0e22\u0e27\u0e34\u0e0a\u0e32\u0e17\u0e35\u0e48\u0e40\u0e23\u0e35\u0e22\u0e19",
    "session": 2
  },
  "model": "quiz.question",
  "pk": 10
},
{
  "fields": {
    "sort": 11,
    "text": "\u0e1c\u0e25\u0e01\u0e32\u0e23\u0e40\u0e23\u0e35\u0e22\u0e19\u0e2d\u0e22\u0e39\u0e48\u0e43\u0e19\u0e23\u0e30\u0e14\u0e31\u0e1a\u0e43\u0e14",
    "session": 3
  },
  "model": "quiz.question",
  "pk": 11
},
{
  "fields": {
    "sort": 12,
    "text": "\u0e27\u0e34\u0e0a\u0e32\u0e2b\u0e25\u0e31\u0e01\u0e17\u0e35\u0e48\u0e0a\u0e2d\u0e1a (\u0e40\u0e25\u0e37\u0e2d\u0e01\u0e44\u0e14\u0e49 1 \u0e27\u0e34\u0e0a\u0e32)",
    "session": 4
  },
  "model": "quiz.question",
  "pk": 12
}
]
